0.3418817293789138
0.19658927487319622
0.1143323900950059
0.3386670053338414
0.37573457465108967
0.17647058823529413
0.0700140042014005
0.2300894966542111
0.1025978352085154
0.11826247919781652
0.2279211529192759
0.0
0.3086066999241838
0.2988071523335984
0.3380617018914066
0.29814239699997197
0.2946278254943948
0.0700140042014005
0.372677996249965
0.22645540682891918
0.20965696734438366
0.0
0.3175536744149779
0.14625448482542613
0.20412414523193148
0.0944911182523068
0.3162277660168379
0.2773500981126146
0.2849014411490949
0.3380617018914066
0.4193139346887673
0.39223227027636803
0.4444444444444444
0.1178511301977579
0.31622776601683794
0.44543540318737396
0.2964997266644405
0.11180339887498948
0.4303314829119352
0.39735970711951313
0.08006407690254358
0.25286086871208685
0.19611613513818404
0.1720618004029213
0.19446111706564934
0.3535533905932738
0.0668153104781061
0.12573892269238632
0.11180339887498948
0.0
0.09829463743659811
0.10050378152592121
0.2834733547569204
0.08770580193070293
0.30304576336566325
0.057831493196624034
0.28867513459481287
0.3450327796711771
0.23570226039551587
0.46188021535170054
0.13801311186847084
0.29250896965085227
0.22237479499833038
0.24494897427831777
0.2964997266644405
0.08362420100070908
0.0
0.0
0.058823529411764705
0.0
0.0
0.2581988897471611
0.0
0.06726727939963126
0.15384615384615385
0.0
0.09128709291752768
0.33633639699815626
0.18490006540840973
0.2525381361380527
0.1111111111111111
0.14907119849998599
0.0
0.0
0.0
0.0
0.0
0.0
0.0
0.0
0.0
0.2696799449852968
0.08451542547285165
0.4629100498862757
0.1091089451179962
0.25354627641855493
0.06804138174397717
0.08770580193070293
0.2631174057921088
0.0