0.624906573997555
0.597493719410275
0.6166418988846659
0.6313759692549208
0.7195821909200567
0.5692797826011482
0.48169786275937554
0.5878280317101201
0.7202380654629694
0.6963339902153386
0.7780051993942971
0.6366255522632545
0.28603877677367767
0.6653056066907972
0.51416004566359
0.6399401641081277
0.7989872339062304
0.6423735733664414
0.6705705141545378
0.6544015177074364
0.5471314693710906
0.5756323287523724
0.54390825284652
0.5155983141064064
0.6630859480164687
0.5389407816362352
0.6652912429864302
0.3868392354571063
0.6340072145533551
0.48563369774581766
0.7174753751595873
0.7373736516996243
0.7128355762588456
0.43505819165981535
0.641375660477203
0.7472055405003423
0.6849748210448414
0.4715515205105491
0.49306287563734336
0.7182325692397216
0.4714925937953586
0.6087375579504039
0.5647524184376796
0.5401595951857995
0.6181586726134968
0.5808818182493266
0.5173636220193294
0.469623330183238
0.47733554139601947
0.48879263994397637
0.38167948676568236
0.4409390721573533
0.5758252129494345
0.32540507461279217
0.5566241536577502
0.5989510456810903
0.6128629196927553
0.5956386645968416
0.7188781649606747
0.7355946517401669
0.6915178222217507
0.5823962368979323
0.5527745381842094
0.6672003578327337
0.6657002799407595
0.4252410773184459
0.5801992507725392
0.677625294504453
0.5829666668799275
0.42042149718956473
0.4641134847770187
0.4401042124090421
0.5695991817625773
0.36228839054317946
0.28486013272924743
0.5172801691363172
0.6808404242767736
0.6025166649191515
0.46665016959154826
0.6747579690002684
0.599486869626016
0.6479947458077943
0.5241081545929064
0.4485396644840089
0.5333094514829245
0.3128908747680773
0.4695789901116496
0.43499436140109704
0.5498994220427381
0.4197844468090189
0.4683271366437571
0.5622247857747195
0.5219970402551786
0.6447399614412073
0.40202464199107585
0.6562392193256507
0.6574759827328647
0.4262038235514745
0.6352045239368292
0.4260027147807065