0.3478260934352875
0.1551724076271057
0.13953489065170288
0.20370370149612427
0.24242424964904785
0.1860465109348297
0.07692307978868484
0.125
0.11999999731779099
0.13333334028720856
0.2380952388048172
0.054054055362939835
0.11764705926179886
0.20930232107639313
0.2142857164144516
0.25806450843811035
0.25
0.13513512909412384
0.30000001192092896
0.19512194395065308
0.14814814925193787
0.0714285746216774
0.22499999403953552
0.1111111119389534
0.18518517911434174
0.12121212482452393
0.1860465109348297
0.1304347813129425
0.1794871836900711
0.1666666716337204
0.27272728085517883
0.2857142984867096
0.2857142984867096
0.0833333358168602
0.125
0.3103448152542114
0.20588235557079315
0.03703703731298447
0.26923078298568726
0.3030303120613098
0.08571428805589676
0.16981132328510284
0.1111111119389534
0.13333334028720856
0.17142857611179352
0.25
0.07894736528396606
0.15909090638160706
0.09090909361839294
0.020408162847161293
0.08771929889917374
0.0784313753247261
0.2222222238779068
0.0625
0.1785714328289032
0.09090909361839294
0.2142857164144516
0.2368421107530594
0.15555556118488312
0.2926829159259796
0.1388888955116272
0.21666666865348816
0.1621621549129486
0.1515151560306549
0.2666666805744171
0.09677419066429138
0.043478261679410934
0.09090909361839294
0.09090909361839294
0.024390242993831635
0.10256410390138626
0.09677419066429138
0.03999999910593033
0.05000000074505806
0.0810810774564743
0.1190476194024086
0.12121212482452393
0.1621621549129486
0.0833333358168602
0.20000000298023224
0.260869562625885
0.1621621549129486
0.0625
0.0
0.05000000074505806
0.06060606241226196
0.05128205195069313
0.025641025975346565
0.12903225421905518
0.09090909361839294
0.0
0.11363636702299118
0.09090909361839294
0.3333333432674408
0.11538461595773697
0.22857142984867096
0.1111111119389534
0.125
0.20000000298023224
0.0