0.2616822421550751
0.04198473319411278
0.058139536529779434
0.07076922804117203
0.11931817978620529
0.05263157933950424
0.027173912152647972
0.07647059112787247
0.032710280269384384
0.04411764815449715
0.0882352963089943
0.032258063554763794
0.15584415197372437
0.1230769231915474
0.10062892735004425
0.11184210330247879
0.10326086729764938
0.04907975345849991
0.11656441539525986
0.05653710290789604
0.06818182021379471
0.05228758230805397
0.1034482792019844
0.1284916251897812
0.10606060922145844
0.05325443670153618
0.1672862470149994
0.06617647409439087
0.10047847032546997
0.09285714477300644
0.16935484111309052
0.10000000149011612
0.12087912112474442
0.06666667014360428
0.13513512909412384
0.28742516040802
0.113772451877594
0.10185185074806213
0.15000000596046448
0.15837104618549347
0.05999999865889549
0.109375
0.08813559263944626
0.077625572681427
0.05649717524647713
0.25563910603523254
0.09195402264595032
0.04059040546417236
0.034632034599781036
0.03745318204164505
0.049822062253952026
0.09012875705957413
0.09356725215911865
0.08849557489156723
0.12244898080825806
0.06694560497999191
0.1164383590221405
0.1085972860455513
0.07196969538927078
0.1190476194024086
0.037634409964084625
0.12084592133760452
0.09459459781646729
0.08749999850988388
0.11971831321716309
0.04268292710185051
0.027322404086589813
0.03030303120613098
0.032608695328235626
0.040816325694322586
0.03448275849223137
0.09774436056613922
0.04444444552063942
0.054421767592430115
0.08571428805589676
0.03703703731298447
0.09774436056613922
0.1225806474685669
0.06034482643008232
0.07073955237865448
0.10526315867900848
0.07386363297700882
0.035211268812417984
0.026905829086899757
0.04790419340133667
0.044025156646966934
0.06122449040412903
0.01923076994717121
0.07352941483259201
0.05681818351149559
0.046296294778585434
0.04721030220389366
0.035211268812417984
0.2857142984867096
0.13008129596710205
0.08796296268701553
0.04444444552063942
0.0833333358168602
0.10204081982374191
0.0602409653365612