0.5736842155456543
0.0716814175248146
0.0760233923792839
0.18702702224254608
0.21279069781303406
0.1608695685863495
0.05000000074505806
0.20000000298023224
0.03553299605846405
0.2772727310657501
0.31621623039245605
0.10422535240650177
0.18611110746860504
0.16100628674030304
0.3379310369491577
0.26825398206710815
0.14318181574344635
0.06417910754680634
0.20704224705696106
0.19859154522418976
0.16623376309871674
0.11884058266878128
0.3217877149581909
0.16107381880283356
0.19793814420700073
0.1340206116437912
0.4183333218097687
0.28717949986457825
0.3257142901420593
0.1683168262243271
0.5809524059295654
0.3227272629737854
0.2702702581882477
0.09879518300294876
0.2755555510520935
0.5333333611488342
0.2639999985694885
0.11509434133768082
0.346808522939682
0.6771653294563293
0.06923077255487442
0.2151351422071457
0.12694063782691956
0.09216590225696564
0.11900826543569565
0.5173333287239075
0.14933332800865173
0.13600000739097595
0.0954248383641243
0.09210526198148727
0.12417582422494888
0.16353590786457062
0.40408164262771606
0.1269230842590332
0.20930232107639313
0.12030075490474701
0.18095238506793976
0.4937500059604645
0.25136610865592957
0.3896103799343109
0.0546875
0.20076045393943787
0.18273381888866425
0.23092783987522125
0.19679999351501465
0.06880000233650208
0.043661970645189285
0.07222222536802292
0.04342857003211975
0.04852941259741783
0.057575758546590805
0.17249999940395355
0.04571428522467613
0.06518518179655075
0.15703703463077545
0.06086956337094307
0.21121495962142944
0.1302013397216797
0.10144927352666855
0.14102564752101898
0.21869158744812012
0.12957745790481567
0.0694444477558136
0.0517241396009922
0.05000000074505806
0.09000000357627869
0.06766917556524277
0.05773195996880531
0.10555555671453476
0.1388888955116272
0.08437500149011612
0.18333333730697632
0.05299145355820656
0.5166666507720947
0.20000000298023224
0.4372093081474304
0.06301369518041611
0.16091954708099365
0.3799999952316284
0.1111111119389534