0.5454545617103577
0.3840579688549042
0.37142857909202576
0.34328359365463257
0.5195530652999878
0.39436620473861694
0.3027026951313019
0.3583815097808838
0.3891402781009674
0.3272727131843567
0.3781818151473999
0.20909090340137482
0.4303797483444214
0.402010053396225
0.359281450510025
0.47770699858665466
0.4202127754688263
0.3452380895614624
0.4588235318660736
0.2943143844604492
0.32846716046333313
0.2451612949371338
0.4771784245967865
0.3968254029750824
0.43382352590560913
0.2888889014720917
0.3501805067062378
0.18705035746097565
0.41743120551109314
0.3835616409778595
0.33070865273475647
0.29891303181648254
0.4021739065647125
0.36263737082481384
0.3866666555404663
0.5202311873435974
0.4797687828540802
0.4144144058227539
0.44897958636283875
0.5089285969734192
0.3181818127632141
0.4312267601490021
0.37662336230278015
0.40888887643814087
0.32967033982276917
0.4776119291782379
0.3499999940395355
0.22887323796749115
0.32765957713127136
0.2836363613605499
0.30689653754234314
0.40506330132484436
0.4000000059604645
0.4067796468734741
0.3557046949863434
0.2788844704627991
0.34899330139160156
0.2800000011920929
0.38661709427833557
0.49537035822868347
0.32460734248161316
0.41246291995048523
0.4248366057872772
0.30434781312942505
0.4413793087005615
0.3273809552192688
0.3405405282974243
0.34319525957107544
0.39361703395843506
0.3466666638851166
0.30434781312942505
0.29411765933036804
0.34391534328460693
0.3708609342575073
0.440559446811676
0.3403141498565674
0.4444444477558136
0.42405062913894653
0.27966102957725525
0.2866241931915283
0.45378151535987854
0.38121548295021057
0.26369863748550415
0.25764191150665283
0.38461539149284363
0.2469135820865631
0.3178808093070984
0.2757009267807007
0.3571428656578064
0.2209944725036621
0.3302752375602722
0.25738397240638733
0.3472222089767456
0.6625000238418579
0.2720000147819519
0.2764976918697357
0.3529411852359772
0.3243243098258972
0.4256756901741028
0.22727273404598236