0.5222329678670935
0.2683281572999747
0.11785113019775793
0.2581988897471611
0.22360679774997896
0.16692446522239712
0.17149858514250882
0.2834733547569204
0.12038585308576923
0.18973665961010275
0.30983866769659335
0.08247860988423225
0.2357022603955158
0.22360679774997896
0.4082482904638631
0.1690308509457033
0.2867696673382022
0.12909944487358055
0.2760262237369417
0.2452557357939863
0.10101525445522107
0.0
0.3458572319330373
0.08703882797784893
0.3113995776646092
0.20225995873897262
0.2891574659831202
0.35856858280031806
0.12598815766974242
0.24019223070763074
0.3779644730092272
0.5
0.5720775535473553
0.0
0.2886751345948129
0.4576043153224295
0.24343224778007383
0.2222222222222222
0.3999999999999999
0.4166666666666667
0.16116459280507606
0.13693063937629152
0.21516574145596762
0.11785113019775793
0.2100420126042015
0.12909944487358055
0.3042903097250923
0.25147784538477264
0.10286889997472795
0.09759000729485333
0.20145574100634506
0.1126872339638022
0.10101525445522107
0.1556997888323046
0.2581988897471611
0.06428243465332249
0.2964997266644405
0.3627381250550058
0.1091089451179962
0.4954336943068622
0.06726727939963126
0.21677749238102995
0.3834824944236852
0.2651650429449553
0.24174688920761409
0.07537783614444091
0.0
0.07669649888473704
0.11764705882352941
0.0
0.0
0.25087260300212727
0.0
0.05976143046671968
0.1336306209562122
0.13245323570650439
0.09090909090909091
0.2581988897471611
0.0
0.14433756729740643
0.2631174057921088
0.2300894966542111
0.0
0.0
0.06454972243679027
0.09128709291752767
0.06741998624632421
0.0
0.27386127875258304
0.0
0.0
0.11547005383792516
0.18257418583505536
0.2721655269759087
0.36980013081681945
0.3928371006591931
0.22237479499833038
0.07216878364870323
0.10206207261596574
0.0