0.6475675311980742
0.2683281572999747
0.1892761803765219
0.3021448065523722
0.23709127152158344
0.18067751384888722
0.246789597058293
0.3703729395597242
0.12038585308576923
0.2604134213150007
0.3561529982275729
0.14038430050199197
0.24349523497025433
0.26826788486902853
0.4143381630446459
0.18990537448345815
0.47387671465052283
0.17068230433645531
0.3371392953754241
0.4451495980885171
0.11927423929219956
0.04978239911499989
0.41895176772026377
0.174527444817675
0.26726404886701716
0.3050853420329019
0.30817844731157523
0.4216370213557839
0.17421087707519492
0.24019223070763074
0.3779644730092272
0.5407828845127641
0.5779340877008896
0.024628876477139097
0.30291962568554087
0.4547195851939067
0.2586285654973182
0.2222222222222222
0.47902421583964516
0.4256332288751208
0.17713727267138468
0.1399039138276332
0.20762128099959543
0.1624755141737218
0.23307126481298018
0.15951167338859987
0.28091833124478627
0.2855867701246745
0.1271188394316725
0.1835052562726904
0.2447436487966244
0.13321386311121194
0.17615703515405937
0.18196469095950968
0.32842641936736733
0.09890755932914484
0.324474890634127
0.3769017898844659
0.13865443977199945
0.5424261618843336
0.12211533313449165
0.30403070058776904
0.3834824944236852
0.25538371441612484
0.26766281704426403
0.18841959813965387
0.05435397515218372
0.12151967437475064
0.17943010622324054
0.022878370463657968
0.06207063289915631
0.277402936580182
0.03531766407774891
0.11317218376751607
0.16552027152433865
0.19806762792637192
0.10095246690291003
0.2971740483328702
0.0341239297463864
0.1660777690284511
0.32557599144437954
0.3723289363529878
0.0630328739516944
0.025972114714505213
0.1109117482532281
0.08838834764831843
0.10415443670374479
0.03916141850821765
0.27386127875258304
0.03567842671038745
0.0
0.08535508941794576
0.2116416405051684
0.17344041515651984
0.44355783228147483
0.40775245392310827
0.24341952736764122
0.09924136873733695
0.1926342440430405
0.04855573469079597