0.6405126152203486
0.2683281572999747
0.1143323900950059
0.25354627641855493
0.22360679774997896
0.16692446522239712
0.23570226039551584
0.2834733547569204
0.12038585308576923
0.18973665961010275
0.30983866769659335
0.08247860988423225
0.2357022603955158
0.22360679774997896
0.4082482904638631
0.1690308509457033
0.40050093945740706
0.125
0.2760262237369417
0.2452557357939863
0.10101525445522107
0.0
0.3872983346207417
0.08362420100070908
0.23354968324845687
0.20225995873897262
0.2773500981126146
0.4216370213557839
0.12598815766974242
0.24019223070763074
0.3779644730092272
0.5
0.5720775535473553
0.0
0.2886751345948129
0.44539933408304444
0.23693955110363693
0.2222222222222222
0.3999999999999999
0.4166666666666667
0.16116459280507606
0.09128709291752768
0.17213259316477408
0.11785113019775793
0.2100420126042015
0.12909944487358055
0.24343224778007383
0.25147784538477264
0.10286889997472795
0.13957263155977062
0.23232092779870994
0.1126872339638022
0.10101525445522107
0.1556997888323046
0.2581988897471611
0.061545745489666376
0.2964997266644405
0.29019050004400465
0.20683507599800766
0.5212860351426869
0.06726727939963126
0.20761369963434992
0.3834824944236852
0.17677669529663687
0.24174688920761409
0.07537783614444091
0.0
0.07669649888473704
0.11764705882352941
0.0
0.0
0.25087260300212727
0.0
0.05976143046671968
0.1336306209562122
0.13245323570650439
0.09090909090909091
0.2581988897471611
0.0
0.09622504486493763
0.2631174057921088
0.3553345272593508
0.0
0.0
0.06454972243679027
0.08838834764831843
0.06741998624632421
0.0
0.27386127875258304
0.0
0.0
0.05773502691896258
0.18257418583505536
0.13608276348795434
0.36980013081681945
0.3928371006591931
0.21428571428571427
0.07216878364870323
0.10206207261596574
0.0